accessory,アクセサリー
agenda,するべきこと
athlete,運動選手
beverage,飲料
brake,ブレーキ
charity,慈悲
chat,おしゃべり
column,棚
dentist,歯科医
diagram,図表
dialogue,対話
doctrine,教義
draft,草案
encyclopedia,百科事典
formation,形態
gossip,うわさ話
gradation,徐々の変化
headline,見出し
hierarchy,階級制
inspiration,霊感
label,ラベル、レッテル
landmark,目印
melancholy,憂鬱
mode,株式、やり方
patron,後援者
prelude,前兆
prologue,序章
epilogue,終章
plot,話の筋
poison,毒
renaissance,再生
royalty,権利料、印税
sector,部門
summit,首脳会談
stage,段階
viewpoint,見解
cancel,取り消す
drag,引っ張る
handle,操作する
heal,いやす
innovate,革新する
lease,お金を払って借りる
recruit,勧誘する
renew,再び新しくする
restructure,再構築する
revenge,仕返しをする
pierce,刺し通す
scan,精査する
automatic,自動的な
cunning,ずるい
ethnic,民族の
oral,口述の
oriental,東洋の
bitter,苦い
offensive,攻撃的な
defensive,守備的な
fragile,壊れやすい
manual,手動の
naïve,世間知らずの
workaholic,仕事中毒の
