associate,連想する
association,協会
accumulate,蓄積する
accumulation,蓄積
affect,影響する
affection,愛情、影響
appreciate,感謝する
appreciation,正しく評価すること
assume,想定する
assumption,想定
anticipate,予期する、期待する
anticipation,期待
concentrate,集中する
concentration,集中
communicate,意思疎通する
communication,伝達
constitute,構成する
constitution,憲法
connect,結びつける
connection,関係
civilize,文明化する
civilization,文明
contribute,貢献する、寄付する
contribution,貢献、寄付
declare,宣言する
declaration,宣言
describe,描写する
description,描写
discriminate,差別する
discrimination,差別
direct,指示する
direction,方向
demonstrate,実演する
demonstration,実演
determine,決心する
determination,決心
distribute,分配する
distribution,分配
donate,寄付する
donation,寄付
exhibit,展示する
exhibition,展覧会
expect,期待する、予期する
expectation,期待、見込
exhaust,疲れ果てる
exhaustion,疲労
evolve,進化する
evolution,進化
examine,調査する
examination,試験、検査
explore,探検する
exploration,探検
exploit,摂取する
exploitation,摂取
explain,説明する
explanation,説明
exclaim,叫ぶ
exclamation,叫び
frustrate,いらいらさせる
frustration,欲求不満
generate,発生させる
generation,世代
isolate,孤立させる
isolation,孤立
imply,暗示する
implication,暗示
introduce,紹介する
introduction,紹介
irritate,いらいらさせる
irritation,いらだち
immigrate,移住する
immigration,移住
imitate,まねる
imitation,模造品
indicate,示唆（しさ）する
indication,兆候
illustrate,例示する
illustration,実例
justify,正当化する
justification,正当化
limit,制限する
limitation,制限
occupy,占める
occupation,職業
operate,操作する
operation,操作、手術
perceive,知覚する
perception,知覚
pollute,汚染する
pollution,汚染
prepare,準備する
preparation,準備
repeat,繰り返す
repetition,反復
reflect,反射する
reflection,反射
restrict,制限する
restriction,制限
reserve,予約する
reservation,予約
restore,回復する
restoration,回復
revolve,回転する
revolution,革命
recognize,認識する
recognition,認識
realize,実現する
realization,実現
react,反応する
reaction,反応
select,選ぶ
selection,選抜
suppose,仮定する
supposition,仮定
suggest,示唆（しさ）する
suggestion,提案
transform,変形させる
transformation,変形
translate A into B,AをBに翻訳する
translation,翻訳
admit,許可する
admission,入学
conclude,結論付ける
conclusion,結論
confuse,混同する
confusion,混同
comprehend,理解する
comprehension,理解
decide,決定する
decision,決定
depress,落ち込ませる
depression,不景気、うつ病
divide,分割する
division,分割、割り算
explode,爆発する
explosion,爆発
express,表現する
expression,表現
permit,許可する
permission,許可
persuade,説得して～させる
persuasion,説得
possess,所有する
possession,所有、財産
achieve,達成する
achievement,達成
agree,同意する
agreement,同意
amuse,楽しませる
amusement,娯楽
entertain,楽しませる
entertainment,娯楽
establish,設立する
establishment,設立
improve,改善する
improvement,改善
invest,投資する
investment,投資
require,要求する
requirement,要求
judge,裁く
judgment,判決
punish,罰する
punishment,罰
retire,退職する
retirement,退職
treat,扱う、治療する
treatment,取扱い、治療
breathe,呼吸する
breathe,息
complain,不平を言う
complaint,不平
identify,同一視する
identity,自己同一性
injure,傷つける
injury,けが
produce,生産する
product,生産物
weigh,重要である
weight,重さ
annoy,いらいらさせる
annoyance,いらだち
attend,出席する、面倒を見る
attendance,出席者
allow,許す
allowance,手当て、おこづかい
accord,一致する
accordance,一致
appear,出現する
appearance,出現
accept,受け入れる
acceptance,受理
disturb,邪魔をする
disturbance,邪魔
endure,耐える
endurance,忍耐
enter,入る
entrance,入口
occur,起こる
occurrence,出来事
refer to,言及する
reference,参照
transfer,移動する
transference,移動
resolve,決心する
resolution,決心
solve,解決する
solution,解決
discover,発見する
discovery,発見
develop,発展させる、発達する
development,発展、発達
cultivate,耕す
cultivation,栽培
calculate,計算する
calculation,計算
behave,ふるまう
behavior,態度
bury,埋める
burial,埋葬
deny,否定する
denial,否定
pursue,追う
pursuit,追跡
propose,提案する
proposal,提案
represent,代表する
representative,代表者
fail,失敗する、しそこなう
failure,失敗
sign,著名する
signature,署名
inquire,尋ねる
inquiry,問い合わせ
monopolize,独占する
monopoly,独占
analyze,分析する
analysis,分析
emphasize,強調する
emphasis,強調
